{
	"forge_marker": 1,
	"defaults":{
		"model":"tardis:block/invis"
	},
	"variants":{
		"facing":{
			"north":{
				"y" : 0
			},
			"east":{
				"y" : 90
			},
			"south":{
				"y" : 180
			},
			"west":{
				"y" : 270
			}
		}
	}
}