{
  "variants": {
        "type=bottom": { "model": "tardis:block/metal_grate_slab" },
        "type=top": { "model": "tardis:block/metal_grate_slab_top" },
        "type=double": { "model": "tardis:block/metal_grate" }
    }
}