{
	"credit": "Made with Blockbench",
	"textures": {
		"0": "tardis:item/ars_tablet",
		"particle": "tardis:item/ars_tablet"
	},
	"elements": [
		{
			"from": [-6.5, -0.125, 3.5],
			"to": [-1.5, 1.5, 12.5],
			"rotation": {"angle": 0, "axis": "y", "origin": [6, 8, 8]},
			"faces": {
				"north": {"uv": [0, 0, 5, 1.625], "texture": "#0"},
				"east": {"uv": [0, 0, 9, 1.625], "texture": "#0"},
				"south": {"uv": [0, 0, 5, 1.625], "texture": "#0"},
				"west": {"uv": [0, 0, 9, 1.625], "texture": "#0"},
				"up": {"uv": [0, 0, 5, 9], "texture": "#0"},
				"down": {"uv": [0, 0, 5, 9], "texture": "#0"}
			}
		},
		{
			"from": [16.625, 0, 4.5],
			"to": [17.75, 1.5, 5.5],
			"faces": {
				"north": {"uv": [0, 0, 1.125, 1.5], "texture": "#0"},
				"east": {"uv": [0, 0, 1, 1.5], "texture": "#0"},
				"south": {"uv": [0, 0, 1.125, 1.5], "texture": "#0"},
				"west": {"uv": [0, 0, 1, 1.5], "texture": "#0"},
				"up": {"uv": [0, 0, 1.125, 1], "texture": "#0"},
				"down": {"uv": [0, 0, 1.125, 1], "texture": "#0"}
			}
		},
		{
			"from": [16.625, 1.5, 4.5],
			"to": [17.75, 1.75, 5.5],
			"rotation": {"angle": 0, "axis": "y", "origin": [8, 8.25, 8]},
			"faces": {
				"north": {"uv": [0, 0, 1.125, 0.25], "texture": "#0"},
				"east": {"uv": [0, 0, 1, 0.25], "texture": "#0"},
				"south": {"uv": [0, 0, 1.125, 0.25], "texture": "#0"},
				"west": {"uv": [0, 0, 1, 0.25], "texture": "#0"},
				"up": {"uv": [0, 0, 1.125, 1], "texture": "#0"},
				"down": {"uv": [0, 0, 1.125, 1], "texture": "#0"}
			}
		},
		{
			"from": [16.625, 1.5, 10.5],
			"to": [17.75, 1.75, 11.5],
			"rotation": {"angle": 0, "axis": "y", "origin": [8, 8.25, 8]},
			"faces": {
				"north": {"uv": [1.125, 0, 0, 0.25], "texture": "#0"},
				"east": {"uv": [1, 0, 0, 0.25], "texture": "#0"},
				"south": {"uv": [1.125, 0, 0, 0.25], "texture": "#0"},
				"west": {"uv": [1, 0, 0, 0.25], "texture": "#0"},
				"up": {"uv": [0, 1, 1.125, 0], "texture": "#0"},
				"down": {"uv": [0, 1, 1.125, 0], "texture": "#0"}
			}
		},
		{
			"from": [16.625, 0, 10.5],
			"to": [17.75, 1.5, 11.5],
			"faces": {
				"north": {"uv": [1.125, 0, 0, 1.5], "texture": "#0"},
				"east": {"uv": [1, 0, 0, 1.5], "texture": "#0"},
				"south": {"uv": [1.125, 0, 0, 1.5], "texture": "#0"},
				"west": {"uv": [1, 0, 0, 1.5], "texture": "#0"},
				"up": {"uv": [0, 1, 1.125, 0], "texture": "#0"},
				"down": {"uv": [0, 1, 1.125, 0], "texture": "#0"}
			}
		},
		{
			"from": [16.625, 1.5, 10.5],
			"to": [17.75, 1.75, 11.5],
			"rotation": {"angle": 0, "axis": "y", "origin": [8, 8.25, 8]},
			"faces": {
				"north": {"uv": [1.125, 0, 2.25, 0.25], "texture": "#0"},
				"east": {"uv": [1, 0, 2, 0.25], "texture": "#0"},
				"south": {"uv": [1.125, 0, 2.25, 0.25], "texture": "#0"},
				"west": {"uv": [1, 0, 2, 0.25], "texture": "#0"},
				"up": {"uv": [0, 1, 1.125, 2], "texture": "#0"},
				"down": {"uv": [0, 1, 1.125, 2], "texture": "#0"}
			}
		},
		{
			"from": [15.5, 0, 4.25],
			"to": [16.625, 1.5, 5.5],
			"rotation": {"angle": 0, "axis": "y", "origin": [6.875, 8, 8]},
			"faces": {
				"north": {"uv": [0, 0, 1.125, 1.5], "texture": "#0"},
				"east": {"uv": [0, 0, 1.25, 1.5], "texture": "#0"},
				"south": {"uv": [0, 0, 1.125, 1.5], "texture": "#0"},
				"west": {"uv": [0, 0, 1.25, 1.5], "texture": "#0"},
				"up": {"uv": [0, 0, 1.125, 1.25], "texture": "#0"},
				"down": {"uv": [0, 0, 1.125, 1.25], "texture": "#0"}
			}
		},
		{
			"from": [15.5, 1.5, 4.25],
			"to": [16.625, 1.75, 5.5],
			"rotation": {"angle": 0, "axis": "y", "origin": [6.875, 8.25, 8]},
			"faces": {
				"north": {"uv": [0, 0, 1.125, 0.25], "texture": "#0"},
				"east": {"uv": [0, 0, 1.25, 0.25], "texture": "#0"},
				"south": {"uv": [0, 0, 1.125, 0.25], "texture": "#0"},
				"west": {"uv": [0, 0, 1.25, 0.25], "texture": "#0"},
				"up": {"uv": [0, 0, 1.125, 1.25], "texture": "#0"},
				"down": {"uv": [0, 0, 1.125, 1.25], "texture": "#0"}
			}
		},
		{
			"from": [15.5, 1.5, 10.5],
			"to": [16.625, 1.75, 11.75],
			"rotation": {"angle": 0, "axis": "y", "origin": [6.875, 8.25, 8]},
			"faces": {
				"north": {"uv": [1.125, 0, 0, 0.25], "texture": "#0"},
				"east": {"uv": [1.25, 0, 0, 0.25], "texture": "#0"},
				"south": {"uv": [1.125, 0, 0, 0.25], "texture": "#0"},
				"west": {"uv": [1.25, 0, 0, 0.25], "texture": "#0"},
				"up": {"uv": [0, 1.25, 1.125, 0], "texture": "#0"},
				"down": {"uv": [0, 1.25, 1.125, 0], "texture": "#0"}
			}
		},
		{
			"from": [15.5, 1.5, 2.625],
			"to": [15.625, 1.75, 4.25],
			"rotation": {"angle": 0, "axis": "y", "origin": [6.875, 8.25, 8]},
			"faces": {
				"north": {"uv": [0, 0, 0.125, 0.25], "texture": "#0"},
				"east": {"uv": [0, 0, 1.625, 0.25], "texture": "#0"},
				"south": {"uv": [0, 0, 0.125, 0.25], "texture": "#0"},
				"west": {"uv": [0, 0, 1.625, 0.25], "texture": "#0"},
				"up": {"uv": [0, 0, 0.125, 1.625], "texture": "#0"},
				"down": {"uv": [0, 0, 0.125, 1.625], "texture": "#0"}
			}
		},
		{
			"from": [15.5, 1.5, 11.75],
			"to": [15.625, 1.75, 13.375],
			"rotation": {"angle": 0, "axis": "y", "origin": [6.875, 8.25, 8]},
			"faces": {
				"north": {"uv": [0.125, 0, 0, 0.25], "texture": "#0"},
				"east": {"uv": [1.625, 0, 0, 0.25], "texture": "#0"},
				"south": {"uv": [0.125, 0, 0, 0.25], "texture": "#0"},
				"west": {"uv": [1.625, 0, 0, 0.25], "texture": "#0"},
				"up": {"uv": [0, 1.625, 0.125, 0], "texture": "#0"},
				"down": {"uv": [0, 1.625, 0.125, 0], "texture": "#0"}
			}
		},
		{
			"from": [15.25, 1.5, 2.25],
			"to": [15.5, 1.75, 13.75],
			"rotation": {"angle": 0, "axis": "y", "origin": [6.75, 8.25, 8]},
			"faces": {
				"north": {"uv": [0, 0, 0.25, 0.25], "texture": "#0"},
				"east": {"uv": [0, 0, 11.5, 0.25], "texture": "#0"},
				"south": {"uv": [0, 0, 0.25, 0.25], "texture": "#0"},
				"west": {"uv": [0, 0, 11.5, 0.25], "texture": "#0"},
				"up": {"uv": [0, 0, 0.25, 11.5], "texture": "#0"},
				"down": {"uv": [0, 0, 0.25, 11.5], "texture": "#0"}
			}
		},
		{
			"from": [13.5, 1.5, 6.75],
			"to": [15.25, 1.75, 9.25],
			"rotation": {"angle": 0, "axis": "y", "origin": [6.5, 8.25, 8]},
			"faces": {
				"north": {"uv": [0, 0, 1.75, 0.25], "texture": "#0"},
				"east": {"uv": [0, 0, 2.5, 0.25], "texture": "#0"},
				"south": {"uv": [0, 0, 1.75, 0.25], "texture": "#0"},
				"west": {"uv": [0, 0, 2.5, 0.25], "texture": "#0"},
				"up": {"uv": [0, 0, 1.75, 2.5], "texture": "#0"},
				"down": {"uv": [0, 0, 1.75, 2.5], "texture": "#0"}
			}
		},
		{
			"from": [15.5, 0, 10.5],
			"to": [16.625, 1.5, 11.75],
			"rotation": {"angle": 0, "axis": "y", "origin": [6.875, 8, 8]},
			"faces": {
				"north": {"uv": [1.125, 0, 0, 1.5], "texture": "#0"},
				"east": {"uv": [1.25, 0, 0, 1.5], "texture": "#0"},
				"south": {"uv": [1.125, 0, 0, 1.5], "texture": "#0"},
				"west": {"uv": [1.25, 0, 0, 1.5], "texture": "#0"},
				"up": {"uv": [0, 1.25, 1.125, 0], "texture": "#0"},
				"down": {"uv": [0, 1.25, 1.125, 0], "texture": "#0"}
			}
		},
		{
			"from": [15.5, 1.5, 10.5],
			"to": [16.625, 1.75, 11.75],
			"rotation": {"angle": 0, "axis": "y", "origin": [6.875, 8.25, 8]},
			"faces": {
				"north": {"uv": [1.125, 0, 2.25, 0.25], "texture": "#0"},
				"east": {"uv": [1.25, 0, 2.5, 0.25], "texture": "#0"},
				"south": {"uv": [1.125, 0, 2.25, 0.25], "texture": "#0"},
				"west": {"uv": [1.25, 0, 2.5, 0.25], "texture": "#0"},
				"up": {"uv": [0, 1.25, 1.125, 2.5], "texture": "#0"},
				"down": {"uv": [0, 1.25, 1.125, 2.5], "texture": "#0"}
			}
		},
		{
			"from": [-1.5, -0.125, 2.25],
			"to": [12.25, 1.5, 13.75],
			"rotation": {"angle": 0, "axis": "y", "origin": [0, 8, 8]},
			"faces": {
				"north": {"uv": [0, 0, 5.75, 1.625], "texture": "#0"},
				"east": {"uv": [0, 0, 5.75, 1.625], "texture": "#0"},
				"south": {"uv": [0, 0, 5.75, 1.625], "texture": "#0"},
				"west": {"uv": [0, 0, 5.75, 1.625], "texture": "#0"},
				"up": {"uv": [0, 0, 5.75, 1.625], "texture": "#0"},
				"down": {"uv": [0, 0, 14.75, 11.625], "texture": "#0"}
			}
		},
		{
			"from": [10.75275, -0.28529, 2.02597],
			"to": [11.003, 1.71671, 3.77772],
			"rotation": {"angle": 0, "axis": "y", "origin": [-0.75875, 7.97296, 8.03197]},
			"faces": {
				"north": {"uv": [0, 0, 0.25, 2], "texture": "#0"},
				"east": {"uv": [0, 0, 1.75, 2], "texture": "#0"},
				"south": {"uv": [0, 0, 0.25, 2], "texture": "#0"},
				"west": {"uv": [0, 0, 1.75, 2], "texture": "#0"},
				"up": {"uv": [0, 0, 0.25, 1.75], "texture": "#0"},
				"down": {"uv": [0, 0, 0.25, 1.75], "texture": "#0"}
			}
		},
		{
			"from": [10.75275, -0.28529, 12.22228],
			"to": [11.003, 1.71671, 13.97403],
			"rotation": {"angle": 0, "axis": "y", "origin": [-0.75875, 7.97296, 7.96803]},
			"faces": {
				"north": {"uv": [0.25, 0, 0, 2], "texture": "#0"},
				"east": {"uv": [1.75, 0, 0, 2], "texture": "#0"},
				"south": {"uv": [0.25, 0, 0, 2], "texture": "#0"},
				"west": {"uv": [1.75, 0, 0, 2], "texture": "#0"},
				"up": {"uv": [0, 1.75, 0.25, 0], "texture": "#0"},
				"down": {"uv": [0, 1.75, 0.25, 0], "texture": "#0"}
			}
		},
		{
			"from": [9.001, -0.28529, 2.02597],
			"to": [9.25125, 1.71671, 3.77772],
			"rotation": {"angle": 0, "axis": "y", "origin": [-2.5105, 7.97296, 8.03197]},
			"faces": {
				"north": {"uv": [0, 0, 0.25, 2], "texture": "#0"},
				"east": {"uv": [0, 0, 1.75, 2], "texture": "#0"},
				"south": {"uv": [0, 0, 0.25, 2], "texture": "#0"},
				"west": {"uv": [0, 0, 1.75, 2], "texture": "#0"},
				"up": {"uv": [0, 0, 0.25, 1.75], "texture": "#0"},
				"down": {"uv": [0, 0, 0.25, 1.75], "texture": "#0"}
			}
		},
		{
			"from": [9.001, -0.28529, 12.22228],
			"to": [9.25125, 1.71671, 13.97403],
			"rotation": {"angle": 0, "axis": "y", "origin": [-2.5105, 7.97296, 7.96803]},
			"faces": {
				"north": {"uv": [0.25, 0, 0, 2], "texture": "#0"},
				"east": {"uv": [1.75, 0, 0, 2], "texture": "#0"},
				"south": {"uv": [0.25, 0, 0, 2], "texture": "#0"},
				"west": {"uv": [1.75, 0, 0, 2], "texture": "#0"},
				"up": {"uv": [0, 1.75, 0.25, 0], "texture": "#0"},
				"down": {"uv": [0, 1.75, 0.25, 0], "texture": "#0"}
			}
		},
		{
			"from": [7.24925, -0.28529, 2.02597],
			"to": [7.4995, 1.71671, 3.77772],
			"rotation": {"angle": 0, "axis": "y", "origin": [-4.26225, 7.97296, 8.03197]},
			"faces": {
				"north": {"uv": [0, 0, 0.25, 2], "texture": "#0"},
				"east": {"uv": [0, 0, 1.75, 2], "texture": "#0"},
				"south": {"uv": [0, 0, 0.25, 2], "texture": "#0"},
				"west": {"uv": [0, 0, 1.75, 2], "texture": "#0"},
				"up": {"uv": [0, 0, 0.25, 1.75], "texture": "#0"},
				"down": {"uv": [0, 0, 0.25, 1.75], "texture": "#0"}
			}
		},
		{
			"from": [7.24925, -0.28529, 12.22228],
			"to": [7.4995, 1.71671, 13.97403],
			"rotation": {"angle": 0, "axis": "y", "origin": [-4.26225, 7.97296, 7.96803]},
			"faces": {
				"north": {"uv": [0.25, 0, 0, 2], "texture": "#0"},
				"east": {"uv": [1.75, 0, 0, 2], "texture": "#0"},
				"south": {"uv": [0.25, 0, 0, 2], "texture": "#0"},
				"west": {"uv": [1.75, 0, 0, 2], "texture": "#0"},
				"up": {"uv": [0, 1.75, 0.25, 0], "texture": "#0"},
				"down": {"uv": [0, 1.75, 0.25, 0], "texture": "#0"}
			}
		},
		{
			"from": [5.4975, -0.28529, 2.02597],
			"to": [5.74775, 1.71671, 3.77772],
			"rotation": {"angle": 0, "axis": "y", "origin": [-6.014, 7.97296, 8.03197]},
			"faces": {
				"north": {"uv": [0, 0, 0.25, 2], "texture": "#0"},
				"east": {"uv": [0, 0, 1.75, 2], "texture": "#0"},
				"south": {"uv": [0, 0, 0.25, 2], "texture": "#0"},
				"west": {"uv": [0, 0, 1.75, 2], "texture": "#0"},
				"up": {"uv": [0, 0, 0.25, 1.75], "texture": "#0"},
				"down": {"uv": [0, 0, 0.25, 1.75], "texture": "#0"}
			}
		},
		{
			"from": [5.4975, -0.28529, 12.22228],
			"to": [5.74775, 1.71671, 13.97403],
			"rotation": {"angle": 0, "axis": "y", "origin": [-6.014, 7.97296, 7.96803]},
			"faces": {
				"north": {"uv": [0.25, 0, 0, 2], "texture": "#0"},
				"east": {"uv": [1.75, 0, 0, 2], "texture": "#0"},
				"south": {"uv": [0.25, 0, 0, 2], "texture": "#0"},
				"west": {"uv": [1.75, 0, 0, 2], "texture": "#0"},
				"up": {"uv": [0, 1.75, 0.25, 0], "texture": "#0"},
				"down": {"uv": [0, 1.75, 0.25, 0], "texture": "#0"}
			}
		},
		{
			"from": [3.74575, -0.28529, 2.02597],
			"to": [3.996, 1.71671, 3.77772],
			"rotation": {"angle": 0, "axis": "y", "origin": [-7.76575, 7.97296, 8.03197]},
			"faces": {
				"north": {"uv": [0, 0, 0.25, 2], "texture": "#0"},
				"east": {"uv": [0, 0, 1.75, 2], "texture": "#0"},
				"south": {"uv": [0, 0, 0.25, 2], "texture": "#0"},
				"west": {"uv": [0, 0, 1.75, 2], "texture": "#0"},
				"up": {"uv": [0, 0, 0.25, 1.75], "texture": "#0"},
				"down": {"uv": [0, 0, 0.25, 1.75], "texture": "#0"}
			}
		},
		{
			"from": [3.74575, -0.28529, 12.22228],
			"to": [3.996, 1.71671, 13.97403],
			"rotation": {"angle": 0, "axis": "y", "origin": [-7.76575, 7.97296, 7.96803]},
			"faces": {
				"north": {"uv": [0.25, 0, 0, 2], "texture": "#0"},
				"east": {"uv": [1.75, 0, 0, 2], "texture": "#0"},
				"south": {"uv": [0.25, 0, 0, 2], "texture": "#0"},
				"west": {"uv": [1.75, 0, 0, 2], "texture": "#0"},
				"up": {"uv": [0, 1.75, 0.25, 0], "texture": "#0"},
				"down": {"uv": [0, 1.75, 0.25, 0], "texture": "#0"}
			}
		},
		{
			"from": [0.24225, -0.28529, 2.02597],
			"to": [0.4925, 1.71671, 3.77772],
			"rotation": {"angle": 0, "axis": "y", "origin": [-11.26925, 7.97296, 8.03197]},
			"faces": {
				"north": {"uv": [0, 0, 0.25, 2], "texture": "#0"},
				"east": {"uv": [0, 0, 1.75, 2], "texture": "#0"},
				"south": {"uv": [0, 0, 0.25, 2], "texture": "#0"},
				"west": {"uv": [0, 0, 1.75, 2], "texture": "#0"},
				"up": {"uv": [0, 0, 0.25, 1.75], "texture": "#0"},
				"down": {"uv": [0, 0, 0.25, 1.75], "texture": "#0"}
			}
		},
		{
			"from": [0.24225, -0.28529, 12.22228],
			"to": [0.4925, 1.71671, 13.97403],
			"rotation": {"angle": 0, "axis": "y", "origin": [-11.26925, 7.97296, 7.96803]},
			"faces": {
				"north": {"uv": [0.25, 0, 0, 2], "texture": "#0"},
				"east": {"uv": [1.75, 0, 0, 2], "texture": "#0"},
				"south": {"uv": [0.25, 0, 0, 2], "texture": "#0"},
				"west": {"uv": [1.75, 0, 0, 2], "texture": "#0"},
				"up": {"uv": [0, 1.75, 0.25, 0], "texture": "#0"},
				"down": {"uv": [0, 1.75, 0.25, 0], "texture": "#0"}
			}
		},
		{
			"from": [-1.5095, -0.28529, 2.02597],
			"to": [-1.25925, 1.71671, 3.77772],
			"rotation": {"angle": 0, "axis": "y", "origin": [-13.021, 7.97296, 8.03197]},
			"faces": {
				"north": {"uv": [0, 0, 0.25, 2], "texture": "#0"},
				"east": {"uv": [0, 0, 1.75, 2], "texture": "#0"},
				"south": {"uv": [0, 0, 0.25, 2], "texture": "#0"},
				"west": {"uv": [0, 0, 1.75, 2], "texture": "#0"},
				"up": {"uv": [0, 0, 0.25, 1.75], "texture": "#0"},
				"down": {"uv": [0, 0, 0.25, 1.75], "texture": "#0"}
			}
		},
		{
			"from": [-1.5095, -0.28529, 12.22228],
			"to": [-1.25925, 1.71671, 13.97403],
			"rotation": {"angle": 0, "axis": "y", "origin": [-13.021, 7.97296, 7.96803]},
			"faces": {
				"north": {"uv": [0.25, 0, 0, 2], "texture": "#0"},
				"east": {"uv": [1.75, 0, 0, 2], "texture": "#0"},
				"south": {"uv": [0.25, 0, 0, 2], "texture": "#0"},
				"west": {"uv": [1.75, 0, 0, 2], "texture": "#0"},
				"up": {"uv": [0, 1.75, 0.25, 0], "texture": "#0"},
				"down": {"uv": [0, 1.75, 0.25, 0], "texture": "#0"}
			}
		},
		{
			"from": [1.994, -0.28529, 2.02597],
			"to": [2.24425, 1.71671, 3.77772],
			"rotation": {"angle": 0, "axis": "y", "origin": [-9.5175, 7.97296, 8.03197]},
			"faces": {
				"north": {"uv": [0, 0, 0.25, 2], "texture": "#0"},
				"east": {"uv": [0, 0, 1.75, 2], "texture": "#0"},
				"south": {"uv": [0, 0, 0.25, 2], "texture": "#0"},
				"west": {"uv": [0, 0, 1.75, 2], "texture": "#0"},
				"up": {"uv": [0, 0, 0.25, 1.75], "texture": "#0"},
				"down": {"uv": [0, 0, 0.25, 1.75], "texture": "#0"}
			}
		},
		{
			"from": [1.994, -0.28529, 12.22228],
			"to": [2.24425, 1.71671, 13.97403],
			"rotation": {"angle": 0, "axis": "y", "origin": [-9.5175, 7.97296, 7.96803]},
			"faces": {
				"north": {"uv": [0.25, 0, 0, 2], "texture": "#0"},
				"east": {"uv": [1.75, 0, 0, 2], "texture": "#0"},
				"south": {"uv": [0.25, 0, 0, 2], "texture": "#0"},
				"west": {"uv": [1.75, 0, 0, 2], "texture": "#0"},
				"up": {"uv": [0, 1.75, 0.25, 0], "texture": "#0"},
				"down": {"uv": [0, 1.75, 0.25, 0], "texture": "#0"}
			}
		},
		{
			"from": [12.75475, -0.125, 2.24425],
			"to": [15.5075, 1.6265, 13.75575],
			"rotation": {"angle": 0, "axis": "y", "origin": [2.995, 8.008, 8]},
			"faces": {
				"north": {"uv": [0, 0, 2.75, 1.5], "texture": "#0"},
				"east": {"uv": [0, 0, 11.5, 1.5], "texture": "#0"},
				"south": {"uv": [0, 0, 2.75, 1.5], "texture": "#0"},
				"west": {"uv": [0, 0, 11.5, 1.5], "texture": "#0"},
				"up": {"uv": [0, 0, 1.75, 8.5], "texture": "#0"},
				"down": {"uv": [0, 0, 1.75, 8.5], "texture": "#0"}
			}
		},
		{
			"from": [12.25, 0, 2.5],
			"to": [12.75, 1.625, 13.5],
			"rotation": {"angle": 0, "axis": "y", "origin": [2.25, 8, 8]},
			"faces": {
				"north": {"uv": [0, 0, 0.5, 1.625], "texture": "#0"},
				"east": {"uv": [0, 0, 11, 1.625], "texture": "#0"},
				"south": {"uv": [0, 0, 0.5, 1.625], "texture": "#0"},
				"west": {"uv": [0, 0, 11, 1.625], "texture": "#0"},
				"up": {"uv": [0, 0, 0.5, 11], "texture": "#0"},
				"down": {"uv": [0, 0, 0.5, 11], "texture": "#0"}
			}
		},
		{
			"from": [-3.74917, 0, 2.1458],
			"to": [-2.74817, 1.5015, 4.05771],
			"rotation": {"angle": -45, "axis": "y", "origin": [-2.74817, 0.5005, 4.89855]},
			"faces": {
				"north": {"uv": [0, 0, 1, 1.5], "texture": "#0"},
				"east": {"uv": [0, 0, 1.91, 1.5], "texture": "#0"},
				"south": {"uv": [0, 0, 1, 1.5], "texture": "#0"},
				"west": {"uv": [0, 0, 1.91, 1.5], "texture": "#0"},
				"up": {"uv": [0, 0, 1.91, 1], "rotation": 270, "texture": "#0"},
				"down": {"uv": [0, 0, 1.91, 1], "rotation": 90, "texture": "#0"}
			}
		},
		{
			"from": [13.26256, 0, 2.15165],
			"to": [16.44256, 1.5, 3.56165],
			"rotation": {"angle": -45, "axis": "y", "origin": [14.26256, 0.5, 4.90165]},
			"faces": {
				"north": {"uv": [0, 0, 3.18, 1.5], "texture": "#0"},
				"east": {"uv": [0, 0, 1.41, 1.5], "texture": "#0"},
				"south": {"uv": [0, 0, 3.18, 1.5], "texture": "#0"},
				"west": {"uv": [0, 0, 1.41, 1.5], "texture": "#0"},
				"up": {"uv": [0, 0, 1.41, 3.18], "rotation": 270, "texture": "#0"},
				"down": {"uv": [0, 0, 1.41, 3.18], "rotation": 90, "texture": "#0"}
			}
		},
		{
			"from": [14.43706, 1.5, 2.20115],
			"to": [14.61706, 1.75, 3.48615],
			"rotation": {"angle": -45, "axis": "y", "origin": [14.31206, 0.75, 4.95115]},
			"faces": {
				"north": {"uv": [0, 0, 0.18, 0.25], "texture": "#0"},
				"east": {"uv": [0, 0, 1.285, 0.25], "texture": "#0"},
				"south": {"uv": [0, 0, 0.18, 0.25], "texture": "#0"},
				"west": {"uv": [0, 0, 1.285, 0.25], "texture": "#0"},
				"up": {"uv": [0, 0, 1.285, 0.18], "rotation": 270, "texture": "#0"},
				"down": {"uv": [0, 0, 1.285, 0.18], "rotation": 90, "texture": "#0"}
			}
		},
		{
			"from": [14.43706, 1.5, 12.51385],
			"to": [14.61706, 1.75, 13.79885],
			"rotation": {"angle": 45, "axis": "y", "origin": [14.31206, 0.75, 11.04885]},
			"faces": {
				"north": {"uv": [0.18, 0, 0, 0.25], "texture": "#0"},
				"east": {"uv": [1.285, 0, 0, 0.25], "texture": "#0"},
				"south": {"uv": [0.18, 0, 0, 0.25], "texture": "#0"},
				"west": {"uv": [1.285, 0, 0, 0.25], "texture": "#0"},
				"up": {"uv": [1.285, 0, 0, 0.18], "rotation": 270, "texture": "#0"},
				"down": {"uv": [1.285, 0, 0, 0.18], "rotation": 90, "texture": "#0"}
			}
		},
		{
			"from": [14.1825, 1.5, 1.94659],
			"to": [14.3625, 1.75, 2.85659],
			"rotation": {"angle": -45, "axis": "y", "origin": [14.0575, 0.75, 4.69659]},
			"faces": {
				"north": {"uv": [0, 0, 0.18, 0.25], "texture": "#0"},
				"east": {"uv": [0, 0, 0.91, 0.25], "texture": "#0"},
				"south": {"uv": [0, 0, 0.18, 0.25], "texture": "#0"},
				"west": {"uv": [0, 0, 0.91, 0.25], "texture": "#0"},
				"up": {"uv": [0, 0, 0.91, 0.18], "rotation": 270, "texture": "#0"},
				"down": {"uv": [0, 0, 0.91, 0.18], "rotation": 90, "texture": "#0"}
			}
		},
		{
			"from": [14.1825, 1.5, 13.14341],
			"to": [14.3625, 1.75, 14.05341],
			"rotation": {"angle": 45, "axis": "y", "origin": [14.0575, 0.75, 11.30341]},
			"faces": {
				"north": {"uv": [0.18, 0, 0, 0.25], "texture": "#0"},
				"east": {"uv": [0.91, 0, 0, 0.25], "texture": "#0"},
				"south": {"uv": [0.18, 0, 0, 0.25], "texture": "#0"},
				"west": {"uv": [0.91, 0, 0, 0.25], "texture": "#0"},
				"up": {"uv": [0.91, 0, 0, 0.18], "rotation": 270, "texture": "#0"},
				"down": {"uv": [0.91, 0, 0, 0.18], "rotation": 90, "texture": "#0"}
			}
		},
		{
			"from": [14.05522, 1.5, 1.81931],
			"to": [14.23522, 1.75, 2.60431],
			"rotation": {"angle": -45, "axis": "y", "origin": [13.93022, 0.75, 4.56931]},
			"faces": {
				"north": {"uv": [0, 0, 0.18, 0.25], "texture": "#0"},
				"east": {"uv": [0, 0, 0.785, 0.25], "texture": "#0"},
				"south": {"uv": [0, 0, 0.18, 0.25], "texture": "#0"},
				"west": {"uv": [0, 0, 0.785, 0.25], "texture": "#0"},
				"up": {"uv": [0, 0, 0.785, 0.18], "rotation": 270, "texture": "#0"},
				"down": {"uv": [0, 0, 0.785, 0.18], "rotation": 90, "texture": "#0"}
			}
		},
		{
			"from": [14.05522, 1.5, 13.39569],
			"to": [14.23522, 1.75, 14.18069],
			"rotation": {"angle": 45, "axis": "y", "origin": [13.93022, 0.75, 11.43069]},
			"faces": {
				"north": {"uv": [0.18, 0, 0, 0.25], "texture": "#0"},
				"east": {"uv": [0.785, 0, 0, 0.25], "texture": "#0"},
				"south": {"uv": [0.18, 0, 0, 0.25], "texture": "#0"},
				"west": {"uv": [0.785, 0, 0, 0.25], "texture": "#0"},
				"up": {"uv": [0.785, 0, 0, 0.18], "rotation": 270, "texture": "#0"},
				"down": {"uv": [0.785, 0, 0, 0.18], "rotation": 90, "texture": "#0"}
			}
		},
		{
			"from": [13.92794, 1.5, 1.69203],
			"to": [14.10794, 1.75, 2.22703],
			"rotation": {"angle": -45, "axis": "y", "origin": [13.80294, 0.75, 4.44203]},
			"faces": {
				"north": {"uv": [0, 0, 0.18, 0.25], "texture": "#0"},
				"east": {"uv": [0, 0, 0.535, 0.25], "texture": "#0"},
				"south": {"uv": [0, 0, 0.18, 0.25], "texture": "#0"},
				"west": {"uv": [0, 0, 0.535, 0.25], "texture": "#0"},
				"up": {"uv": [0, 0, 0.535, 0.18], "rotation": 270, "texture": "#0"},
				"down": {"uv": [0, 0, 0.535, 0.18], "rotation": 90, "texture": "#0"}
			}
		},
		{
			"from": [13.92794, 1.5, 13.77297],
			"to": [14.10794, 1.75, 14.30797],
			"rotation": {"angle": 45, "axis": "y", "origin": [13.80294, 0.75, 11.55797]},
			"faces": {
				"north": {"uv": [0.18, 0, 0, 0.25], "texture": "#0"},
				"east": {"uv": [0.535, 0, 0, 0.25], "texture": "#0"},
				"south": {"uv": [0.18, 0, 0, 0.25], "texture": "#0"},
				"west": {"uv": [0.535, 0, 0, 0.25], "texture": "#0"},
				"up": {"uv": [0.535, 0, 0, 0.18], "rotation": 270, "texture": "#0"},
				"down": {"uv": [0.535, 0, 0, 0.18], "rotation": 90, "texture": "#0"}
			}
		},
		{
			"from": [14.30978, 1.5, 2.07387],
			"to": [14.48978, 1.75, 3.23387],
			"rotation": {"angle": -45, "axis": "y", "origin": [14.18478, 0.75, 4.82387]},
			"faces": {
				"north": {"uv": [0, 0, 0.18, 0.25], "texture": "#0"},
				"east": {"uv": [0, 0, 1.16, 0.25], "texture": "#0"},
				"south": {"uv": [0, 0, 0.18, 0.25], "texture": "#0"},
				"west": {"uv": [0, 0, 1.16, 0.25], "texture": "#0"},
				"up": {"uv": [0, 0, 1.16, 0.18], "rotation": 270, "texture": "#0"},
				"down": {"uv": [0, 0, 1.16, 0.18], "rotation": 90, "texture": "#0"}
			}
		},
		{
			"from": [14.30978, 1.5, 12.76613],
			"to": [14.48978, 1.75, 13.92613],
			"rotation": {"angle": 45, "axis": "y", "origin": [14.18478, 0.75, 11.17613]},
			"faces": {
				"north": {"uv": [0.18, 0, 0, 0.25], "texture": "#0"},
				"east": {"uv": [1.16, 0, 0, 0.25], "texture": "#0"},
				"south": {"uv": [0.18, 0, 0, 0.25], "texture": "#0"},
				"west": {"uv": [1.16, 0, 0, 0.25], "texture": "#0"},
				"up": {"uv": [1.16, 0, 0, 0.18], "rotation": 270, "texture": "#0"},
				"down": {"uv": [1.16, 0, 0, 0.18], "rotation": 90, "texture": "#0"}
			}
		},
		{
			"from": [14.63756, 1.5, 2.15165],
			"to": [16.44256, 1.75, 3.56165],
			"rotation": {"angle": -45, "axis": "y", "origin": [14.26256, 0.75, 4.90165]},
			"faces": {
				"north": {"uv": [0, 0, 1.805, 0.25], "texture": "#0"},
				"east": {"uv": [0, 0, 1.41, 0.25], "texture": "#0"},
				"south": {"uv": [0, 0, 1.805, 0.25], "texture": "#0"},
				"west": {"uv": [0, 0, 1.41, 0.25], "texture": "#0"},
				"up": {"uv": [0, 0, 1.41, 1.805], "rotation": 270, "texture": "#0"},
				"down": {"uv": [0, 0, 1.41, 1.805], "rotation": 90, "texture": "#0"}
			}
		},
		{
			"from": [14.63756, 1.5, 12.43835],
			"to": [16.44256, 1.75, 13.84835],
			"rotation": {"angle": 45, "axis": "y", "origin": [14.26256, 0.75, 11.09835]},
			"faces": {
				"north": {"uv": [1.805, 0, 0, 0.25], "texture": "#0"},
				"east": {"uv": [1.41, 0, 0, 0.25], "texture": "#0"},
				"south": {"uv": [1.805, 0, 0, 0.25], "texture": "#0"},
				"west": {"uv": [1.41, 0, 0, 0.25], "texture": "#0"},
				"up": {"uv": [1.41, 0, 0, 1.805], "rotation": 270, "texture": "#0"},
				"down": {"uv": [1.41, 0, 0, 1.805], "rotation": 90, "texture": "#0"}
			}
		},
		{
			"from": [13.38756, 1.5, 2.15165],
			"to": [13.81756, 1.75, 2.43665],
			"rotation": {"angle": -45, "axis": "y", "origin": [14.26256, 0.75, 4.90165]},
			"faces": {
				"north": {"uv": [0, 0, 0.43, 0.25], "texture": "#0"},
				"east": {"uv": [0, 0, 0.285, 0.25], "texture": "#0"},
				"south": {"uv": [0, 0, 0.43, 0.25], "texture": "#0"},
				"west": {"uv": [0, 0, 0.285, 0.25], "texture": "#0"},
				"up": {"uv": [0, 0, 0.285, 0.43], "rotation": 270, "texture": "#0"},
				"down": {"uv": [0, 0, 0.285, 0.43], "rotation": 90, "texture": "#0"}
			}
		},
		{
			"from": [13.38756, 1.5, 13.56335],
			"to": [13.81756, 1.75, 13.84835],
			"rotation": {"angle": 45, "axis": "y", "origin": [14.26256, 0.75, 11.09835]},
			"faces": {
				"north": {"uv": [0.43, 0, 0, 0.25], "texture": "#0"},
				"east": {"uv": [0.285, 0, 0, 0.25], "texture": "#0"},
				"south": {"uv": [0.43, 0, 0, 0.25], "texture": "#0"},
				"west": {"uv": [0.285, 0, 0, 0.25], "texture": "#0"},
				"up": {"uv": [0.285, 0, 0, 0.43], "rotation": 270, "texture": "#0"},
				"down": {"uv": [0.285, 0, 0, 0.43], "rotation": 90, "texture": "#0"}
			}
		},
		{
			"from": [13.26256, 1.5, 2.15165],
			"to": [13.44256, 1.75, 2.31165],
			"rotation": {"angle": -45, "axis": "y", "origin": [14.26256, 0.75, 4.90165]},
			"faces": {
				"north": {"uv": [0, 0, 0.18, 0.25], "texture": "#0"},
				"east": {"uv": [0, 0, 0.16, 0.25], "texture": "#0"},
				"south": {"uv": [0, 0, 0.18, 0.25], "texture": "#0"},
				"west": {"uv": [0, 0, 0.16, 0.25], "texture": "#0"},
				"up": {"uv": [0, 0, 0.16, 0.18], "rotation": 270, "texture": "#0"},
				"down": {"uv": [0, 0, 0.16, 0.18], "rotation": 90, "texture": "#0"}
			}
		},
		{
			"from": [13.26256, 1.5, 13.68835],
			"to": [13.44256, 1.75, 13.84835],
			"rotation": {"angle": 45, "axis": "y", "origin": [14.26256, 0.75, 11.09835]},
			"faces": {
				"north": {"uv": [0.18, 0, 0, 0.25], "texture": "#0"},
				"east": {"uv": [0.16, 0, 0, 0.25], "texture": "#0"},
				"south": {"uv": [0.18, 0, 0, 0.25], "texture": "#0"},
				"west": {"uv": [0.16, 0, 0, 0.25], "texture": "#0"},
				"up": {"uv": [0.16, 0, 0, 0.18], "rotation": 270, "texture": "#0"},
				"down": {"uv": [0.16, 0, 0, 0.18], "rotation": 90, "texture": "#0"}
			}
		},
		{
			"from": [13.26256, 0, 12.43835],
			"to": [16.44256, 1.5, 13.84835],
			"rotation": {"angle": 45, "axis": "y", "origin": [14.26256, 0.5, 11.09835]},
			"faces": {
				"north": {"uv": [3.18, 0, 0, 1.5], "texture": "#0"},
				"east": {"uv": [1.41, 0, 0, 1.5], "texture": "#0"},
				"south": {"uv": [3.18, 0, 0, 1.5], "texture": "#0"},
				"west": {"uv": [1.41, 0, 0, 1.5], "texture": "#0"},
				"up": {"uv": [1.41, 0, 0, 3.18], "rotation": 270, "texture": "#0"},
				"down": {"uv": [1.41, 0, 0, 3.18], "rotation": 90, "texture": "#0"}
			}
		},
		{
			"from": [-3.74917, 0, 11.94229],
			"to": [-2.74817, 1.5015, 13.8542],
			"rotation": {"angle": 45, "axis": "y", "origin": [-2.74817, 0.5005, 11.10145]},
			"faces": {
				"north": {"uv": [1, 0, 0, 1.5], "texture": "#0"},
				"east": {"uv": [1.91, 0, 0, 1.5], "texture": "#0"},
				"south": {"uv": [1, 0, 0, 1.5], "texture": "#0"},
				"west": {"uv": [1.91, 0, 0, 1.5], "texture": "#0"},
				"up": {"uv": [1.91, 0, 0, 1], "rotation": 270, "texture": "#0"},
				"down": {"uv": [1.91, 0, 0, 1], "rotation": 90, "texture": "#0"}
			}
		},
		{
			"from": [-7.56066, 0, 1.81066],
			"to": [-5.31066, 1.5, 5.47066],
			"rotation": {"angle": -45, "axis": "y", "origin": [-6.56066, 0.5, 4.56066]},
			"faces": {
				"north": {"uv": [0, 0, 2.25, 1.5], "texture": "#0"},
				"east": {"uv": [0, 0, 3.66, 1.5], "texture": "#0"},
				"south": {"uv": [0, 0, 2.25, 1.5], "texture": "#0"},
				"west": {"uv": [0, 0, 3.66, 1.5], "texture": "#0"},
				"up": {"uv": [0, 0, 3.66, 2.25], "rotation": 270, "texture": "#0"},
				"down": {"uv": [0, 0, 3.66, 2.25], "rotation": 90, "texture": "#0"}
			}
		},
		{
			"from": [-7.56066, 0, 10.52934],
			"to": [-5.31066, 1.5, 14.18934],
			"rotation": {"angle": 45, "axis": "y", "origin": [-6.56066, 0.5, 11.43934]},
			"faces": {
				"north": {"uv": [2.25, 0, 0, 1.5], "texture": "#0"},
				"east": {"uv": [3.66, 0, 0, 1.5], "texture": "#0"},
				"south": {"uv": [2.25, 0, 0, 1.5], "texture": "#0"},
				"west": {"uv": [3.66, 0, 0, 1.5], "texture": "#0"},
				"up": {"uv": [3.66, 0, 0, 2.25], "rotation": 270, "texture": "#0"},
				"down": {"uv": [3.66, 0, 0, 2.25], "rotation": 90, "texture": "#0"}
			}
		},
		{
			"from": [-7.24945, 1.47, 2.18445],
			"to": [-4.54445, 1.715, 5.64625],
			"rotation": {"angle": -45, "axis": "y", "origin": [-6.26945, 0.735, 4.75445]},
			"faces": {
				"north": {"uv": [0, 0, 2.25, 0.25], "texture": "#0"},
				"east": {"uv": [0, 0, 3.66, 0.25], "texture": "#0"},
				"south": {"uv": [0, 0, 2.25, 0.25], "texture": "#0"},
				"west": {"uv": [0, 0, 3.66, 0.25], "texture": "#0"},
				"up": {"uv": [0, 7, 1.66, 9.25], "rotation": 270, "texture": "#0"},
				"down": {"uv": [0, 0, 3.66, 2.25], "rotation": 90, "texture": "#0"}
			}
		},
		{
			"from": [-7.24945, 1.47, 10.35375],
			"to": [-4.54445, 1.715, 13.81555],
			"rotation": {"angle": 45, "axis": "y", "origin": [-6.26945, 0.735, 11.24555]},
			"faces": {
				"north": {"uv": [2.25, 0, 0, 0.25], "texture": "#0"},
				"east": {"uv": [3.66, 0, 0, 0.25], "texture": "#0"},
				"south": {"uv": [2.25, 0, 0, 0.25], "texture": "#0"},
				"west": {"uv": [3.66, 0, 0, 0.25], "texture": "#0"},
				"up": {"uv": [0, 7, 1.66, 9.25], "rotation": 270, "texture": "#0"},
				"down": {"uv": [3.66, 0, 0, 2.25], "rotation": 90, "texture": "#0"}
			}
		},
		{
			"from": [-5.44028, 1.47, 7.36862],
			"to": [-4.44028, 1.715, 7.58042],
			"rotation": {"angle": -45, "axis": "y", "origin": [-4.71028, 0.735, 6.43862]},
			"faces": {
				"north": {"uv": [0, 0, 2.25, 0.25], "texture": "#0"},
				"east": {"uv": [0, 0, 3.66, 0.25], "texture": "#0"},
				"south": {"uv": [0, 0, 2.25, 0.25], "texture": "#0"},
				"west": {"uv": [0, 0, 3.66, 0.25], "texture": "#0"},
				"up": {"uv": [0, 0, 3.66, 2.25], "rotation": 270, "texture": "#0"},
				"down": {"uv": [0, 0, 3.66, 2.25], "rotation": 90, "texture": "#0"}
			}
		},
		{
			"from": [-6.09587, 1.47, 6.58004],
			"to": [-5.88407, 1.715, 9.42004],
			"rotation": {"angle": 0, "axis": "y", "origin": [-4.95407, 0.735, 7.06004]},
			"faces": {
				"north": {"uv": [0, 0, 3.66, 0.25], "texture": "#0"},
				"east": {"uv": [0, 0, 2.25, 0.25], "texture": "#0"},
				"south": {"uv": [0, 0, 3.66, 0.25], "texture": "#0"},
				"west": {"uv": [0, 0, 2.25, 0.25], "texture": "#0"},
				"up": {"uv": [0, 0, 3.66, 2.25], "texture": "#0"},
				"down": {"uv": [0, 0, 3.66, 2.25], "texture": "#0"}
			}
		},
		{
			"from": [-5.38877, 1.47, 7.28715],
			"to": [-5.17697, 1.715, 8.71215],
			"rotation": {"angle": 0, "axis": "y", "origin": [-4.24697, 0.735, 7.76715]},
			"faces": {
				"north": {"uv": [0, 0, 3.66, 0.25], "texture": "#0"},
				"east": {"uv": [0, 0, 2.25, 0.25], "texture": "#0"},
				"south": {"uv": [0, 0, 3.66, 0.25], "texture": "#0"},
				"west": {"uv": [0, 0, 2.25, 0.25], "texture": "#0"},
				"up": {"uv": [0, 0, 3.66, 2.25], "texture": "#0"},
				"down": {"uv": [0, 0, 3.66, 2.25], "texture": "#0"}
			}
		},
		{
			"from": [-5.44028, 1.47, 8.41958],
			"to": [-4.44028, 1.715, 8.63138],
			"rotation": {"angle": 45, "axis": "y", "origin": [-4.71028, 0.735, 9.56138]},
			"faces": {
				"north": {"uv": [2.25, 0, 0, 0.25], "texture": "#0"},
				"east": {"uv": [3.66, 0, 0, 0.25], "texture": "#0"},
				"south": {"uv": [2.25, 0, 0, 0.25], "texture": "#0"},
				"west": {"uv": [3.66, 0, 0, 0.25], "texture": "#0"},
				"up": {"uv": [3.66, 0, 0, 2.25], "rotation": 270, "texture": "#0"},
				"down": {"uv": [3.66, 0, 0, 2.25], "rotation": 90, "texture": "#0"}
			}
		},
		{
			"from": [-7.52773, 0, 2.65273],
			"to": [-5.52773, 1.5, 3.48773],
			"rotation": {"angle": -45, "axis": "y", "origin": [-6.52773, 0.5, 2.52773]},
			"faces": {
				"north": {"uv": [0, 0, 2, 1.5], "texture": "#0"},
				"east": {"uv": [0, 0, 0.835, 1.5], "texture": "#0"},
				"south": {"uv": [0, 0, 2, 1.5], "texture": "#0"},
				"west": {"uv": [0, 0, 0.835, 1.5], "texture": "#0"},
				"up": {"uv": [0, 0, 0.835, 2], "rotation": 270, "texture": "#0"},
				"down": {"uv": [0, 0, 0.835, 2], "rotation": 90, "texture": "#0"}
			}
		},
		{
			"from": [-7.52773, 0, 12.51227],
			"to": [-5.52773, 1.5, 13.34727],
			"rotation": {"angle": 45, "axis": "y", "origin": [-6.52773, 0.5, 13.47227]},
			"faces": {
				"north": {"uv": [2, 0, 0, 1.5], "texture": "#0"},
				"east": {"uv": [0.835, 0, 0, 1.5], "texture": "#0"},
				"south": {"uv": [2, 0, 0, 1.5], "texture": "#0"},
				"west": {"uv": [0.835, 0, 0, 1.5], "texture": "#0"},
				"up": {"uv": [0.835, 0, 0, 2], "rotation": 270, "texture": "#0"},
				"down": {"uv": [0.835, 0, 0, 2], "rotation": 90, "texture": "#0"}
			}
		},
		{
			"from": [-7.20196, 1.46853, 3.01466],
			"to": [-5.24392, 1.71329, 3.70727],
			"rotation": {"angle": -45, "axis": "y", "origin": [-6.22294, 0.73427, 2.76741]},
			"faces": {
				"north": {"uv": [0, 0, 2, 0.25], "texture": "#0"},
				"east": {"uv": [0, 0, 0.835, 0.25], "texture": "#0"},
				"south": {"uv": [0, 0, 2, 0.25], "texture": "#0"},
				"west": {"uv": [0, 0, 0.835, 0.25], "texture": "#0"},
				"up": {"uv": [0, 0, 0.835, 2], "rotation": 270, "texture": "#0"},
				"down": {"uv": [0, 0, 0.835, 2], "rotation": 90, "texture": "#0"}
			}
		},
		{
			"from": [-7.20196, 1.46853, 12.29273],
			"to": [-5.24392, 1.71329, 12.98534],
			"rotation": {"angle": 45, "axis": "y", "origin": [-6.22294, 0.73427, 13.23259]},
			"faces": {
				"north": {"uv": [2, 0, 0, 0.25], "texture": "#0"},
				"east": {"uv": [0.835, 0, 0, 0.25], "texture": "#0"},
				"south": {"uv": [2, 0, 0, 0.25], "texture": "#0"},
				"west": {"uv": [0.835, 0, 0, 0.25], "texture": "#0"},
				"up": {"uv": [0.835, 0, 0, 2], "rotation": 270, "texture": "#0"},
				"down": {"uv": [0.835, 0, 0, 2], "rotation": 90, "texture": "#0"}
			}
		},
		{
			"from": [-7.91421, -0.01, 2.5],
			"to": [-6.91421, 1.49, 4.5],
			"rotation": {"angle": 0, "axis": "y", "origin": [-6.91421, 0.5, 2.5]},
			"faces": {
				"north": {"uv": [0, 0, 1, 1.5], "texture": "#0"},
				"east": {"uv": [0, 0, 2, 1.5], "texture": "#0"},
				"south": {"uv": [0, 0, 1, 1.5], "texture": "#0"},
				"west": {"uv": [0, 0, 2, 1.5], "texture": "#0"},
				"up": {"uv": [0, 0, 1, 2], "texture": "#0"},
				"down": {"uv": [0, 0, 1, 2], "texture": "#0"}
			}
		},
		{
			"from": [-7.91421, -0.01, 11.5],
			"to": [-6.91421, 1.49, 13.5],
			"rotation": {"angle": 0, "axis": "y", "origin": [-6.91421, 0.5, 13.5]},
			"faces": {
				"north": {"uv": [1, 0, 0, 1.5], "texture": "#0"},
				"east": {"uv": [2, 0, 0, 1.5], "texture": "#0"},
				"south": {"uv": [1, 0, 0, 1.5], "texture": "#0"},
				"west": {"uv": [2, 0, 0, 1.5], "texture": "#0"},
				"up": {"uv": [0, 2, 1, 0], "texture": "#0"},
				"down": {"uv": [0, 2, 1, 0], "texture": "#0"}
			}
		},
		{
			"from": [-7.59457, 1.47015, 2.73155],
			"to": [-6.61447, 1.71517, 4.69175],
			"rotation": {"angle": 0, "axis": "y", "origin": [-6.61447, 0.73507, 2.73155]},
			"faces": {
				"north": {"uv": [0, 0, 1, 0.25], "texture": "#0"},
				"east": {"uv": [0, 0, 2, 0.25], "texture": "#0"},
				"south": {"uv": [0, 0, 1, 0.25], "texture": "#0"},
				"west": {"uv": [0, 0, 2, 0.25], "texture": "#0"},
				"up": {"uv": [0, 0, 1, 2], "texture": "#0"},
				"down": {"uv": [0, 0, 1, 2], "texture": "#0"}
			}
		},
		{
			"from": [-7.59457, 1.47015, 11.30825],
			"to": [-6.61447, 1.71517, 13.26845],
			"rotation": {"angle": 0, "axis": "y", "origin": [-6.61447, 0.73507, 13.26845]},
			"faces": {
				"north": {"uv": [1, 0, 0, 0.25], "texture": "#0"},
				"east": {"uv": [2, 0, 0, 0.25], "texture": "#0"},
				"south": {"uv": [1, 0, 0, 0.25], "texture": "#0"},
				"west": {"uv": [2, 0, 0, 0.25], "texture": "#0"},
				"up": {"uv": [0, 2, 1, 0], "texture": "#0"},
				"down": {"uv": [0, 2, 1, 0], "texture": "#0"}
			}
		},
		{
			"from": [-1.5, 1.47, 3.78194],
			"to": [12.25, 1.715, 4.21694],
			"rotation": {"angle": 0, "axis": "y", "origin": [-3.23242, 0.735, 3.15694]},
			"faces": {
				"north": {"uv": [0, 0, 1, 0.25], "texture": "#0"},
				"east": {"uv": [0, 0, 2, 0.25], "texture": "#0"},
				"south": {"uv": [0, 0, 1, 0.25], "texture": "#0"},
				"west": {"uv": [0, 0, 2, 0.25], "texture": "#0"},
				"up": {"uv": [0, 0, 1, 2], "texture": "#0"},
				"down": {"uv": [0, 0, 1, 2], "texture": "#0"}
			}
		},
		{
			"from": [-1.5, 1.47, 11.78306],
			"to": [12.25, 1.715, 12.21806],
			"rotation": {"angle": 0, "axis": "y", "origin": [-3.23242, 0.735, 12.84306]},
			"faces": {
				"north": {"uv": [1, 0, 0, 0.25], "texture": "#0"},
				"east": {"uv": [2, 0, 0, 0.25], "texture": "#0"},
				"south": {"uv": [1, 0, 0, 0.25], "texture": "#0"},
				"west": {"uv": [2, 0, 0, 0.25], "texture": "#0"},
				"up": {"uv": [0, 2, 1, 0], "texture": "#0"},
				"down": {"uv": [0, 2, 1, 0], "texture": "#0"}
			}
		},
		{
			"from": [-1.5, 1.47, 2.59694],
			"to": [12.25, 1.59, 3.78194],
			"rotation": {"angle": 0, "axis": "y", "origin": [-3.23242, 0.735, 2.72194]},
			"faces": {
				"north": {"uv": [0, 0, 1, 0.25], "texture": "#0"},
				"east": {"uv": [0, 0, 2, 0.25], "texture": "#0"},
				"south": {"uv": [0, 0, 1, 0.25], "texture": "#0"},
				"west": {"uv": [0, 0, 2, 0.25], "texture": "#0"},
				"up": {"uv": [0, 0, 1, 2], "texture": "#0"},
				"down": {"uv": [0, 0, 1, 2], "texture": "#0"}
			}
		},
		{
			"from": [-1.5, 1.47, 12.21806],
			"to": [12.25, 1.59, 13.40306],
			"rotation": {"angle": 0, "axis": "y", "origin": [-3.23242, 0.735, 13.27806]},
			"faces": {
				"north": {"uv": [1, 0, 0, 0.25], "texture": "#0"},
				"east": {"uv": [2, 0, 0, 0.25], "texture": "#0"},
				"south": {"uv": [1, 0, 0, 0.25], "texture": "#0"},
				"west": {"uv": [2, 0, 0, 0.25], "texture": "#0"},
				"up": {"uv": [0, 2, 1, 0], "texture": "#0"},
				"down": {"uv": [0, 2, 1, 0], "texture": "#0"}
			}
		},
		{
			"from": [12.28758, 1.595, 4.15694],
			"to": [12.53758, 1.84, 11.84194],
			"rotation": {"angle": 0, "axis": "y", "origin": [-3.48242, 0.86, 4.15694]},
			"faces": {
				"north": {"uv": [0, 0, 1, 0.25], "texture": "#0"},
				"east": {"uv": [0, 0, 2, 0.25], "texture": "#0"},
				"south": {"uv": [0, 0, 1, 0.25], "texture": "#0"},
				"west": {"uv": [0, 0, 2, 0.25], "texture": "#0"},
				"up": {"uv": [0, 0, 1, 2], "texture": "#0"},
				"down": {"uv": [0, 0, 1, 2], "texture": "#0"}
			}
		},
		{
			"from": [-3.96242, 1.595, 4.15694],
			"to": [12.28758, 1.84, 4.46694],
			"rotation": {"angle": 0, "axis": "y", "origin": [-3.48242, 0.86, 4.15694]},
			"faces": {
				"north": {"uv": [0, 0, 1, 0.25], "texture": "#0"},
				"east": {"uv": [0, 0, 2, 0.25], "texture": "#0"},
				"south": {"uv": [0, 0, 1, 0.25], "texture": "#0"},
				"west": {"uv": [0, 0, 2, 0.25], "texture": "#0"},
				"up": {"uv": [0, 0, 1, 2], "texture": "#0"},
				"down": {"uv": [0, 0, 1, 2], "texture": "#0"}
			}
		},
		{
			"from": [-3.96242, 1.595, 11.53306],
			"to": [12.28758, 1.84, 11.84306],
			"rotation": {"angle": 0, "axis": "y", "origin": [-3.48242, 0.86, 11.84306]},
			"faces": {
				"north": {"uv": [1, 0, 0, 0.25], "texture": "#0"},
				"east": {"uv": [2, 0, 0, 0.25], "texture": "#0"},
				"south": {"uv": [1, 0, 0, 0.25], "texture": "#0"},
				"west": {"uv": [2, 0, 0, 0.25], "texture": "#0"},
				"up": {"uv": [0, 2, 1, 0], "texture": "#0"},
				"down": {"uv": [0, 2, 1, 0], "texture": "#0"}
			}
		},
		{
			"from": [-4.21242, 1.595, 4.15694],
			"to": [-3.96242, 1.84, 11.84194],
			"rotation": {"angle": 0, "axis": "y", "origin": [-19.98242, 0.86, 4.15694]},
			"faces": {
				"north": {"uv": [0, 0, 1, 0.25], "texture": "#0"},
				"east": {"uv": [0, 0, 2, 0.25], "texture": "#0"},
				"south": {"uv": [0, 0, 1, 0.25], "texture": "#0"},
				"west": {"uv": [0, 0, 2, 0.25], "texture": "#0"},
				"up": {"uv": [0, 0, 1, 2], "texture": "#0"},
				"down": {"uv": [0, 0, 1, 2], "texture": "#0"}
			}
		},
		{
			"from": [-4.71242, 1.47, 4.15694],
			"to": [-4.21242, 1.59, 11.84194],
			"rotation": {"angle": 0, "axis": "y", "origin": [-20.23242, 0.735, 4.15694]},
			"faces": {
				"north": {"uv": [0, 0, 1, 0.25], "texture": "#0"},
				"east": {"uv": [0, 0, 2, 0.25], "texture": "#0"},
				"south": {"uv": [0, 0, 1, 0.25], "texture": "#0"},
				"west": {"uv": [0, 0, 2, 0.25], "texture": "#0"},
				"up": {"uv": [0, 0, 1, 2], "texture": "#0"},
				"down": {"uv": [0, 0, 1, 2], "texture": "#0"}
			}
		},
		{
			"from": [-7.32322, -0.01, 1.90901],
			"to": [-5.32322, 1.49, 2.90901],
			"rotation": {"angle": 0, "axis": "y", "origin": [-6.32322, 0.5, 1.90901]},
			"faces": {
				"north": {"uv": [0, 0, 2, 1.5], "texture": "#0"},
				"east": {"uv": [0, 0, 1, 1.5], "texture": "#0"},
				"south": {"uv": [0, 0, 2, 1.5], "texture": "#0"},
				"west": {"uv": [0, 0, 1, 1.5], "texture": "#0"},
				"up": {"uv": [0, 0, 2, 1], "texture": "#0"},
				"down": {"uv": [0, 0, 2, 1], "texture": "#0"}
			}
		},
		{
			"from": [-7.32322, -0.01, 13.09099],
			"to": [-5.32322, 1.49, 14.09099],
			"rotation": {"angle": 0, "axis": "y", "origin": [-6.32322, 0.5, 14.09099]},
			"faces": {
				"north": {"uv": [2, 0, 0, 1.5], "texture": "#0"},
				"east": {"uv": [1, 0, 0, 1.5], "texture": "#0"},
				"south": {"uv": [2, 0, 0, 1.5], "texture": "#0"},
				"west": {"uv": [1, 0, 0, 1.5], "texture": "#0"},
				"up": {"uv": [0, 1, 2, 0], "texture": "#0"},
				"down": {"uv": [0, 1, 2, 0], "texture": "#0"}
			}
		},
		{
			"from": [-7.10666, 1.47015, 2.24364],
			"to": [-5.14646, 1.71517, 3.22374],
			"rotation": {"angle": 0, "axis": "y", "origin": [-6.12656, 0.73507, 2.24364]},
			"faces": {
				"north": {"uv": [0, 0, 2, 0.25], "texture": "#0"},
				"east": {"uv": [0, 0, 1, 0.25], "texture": "#0"},
				"south": {"uv": [0, 0, 2, 0.25], "texture": "#0"},
				"west": {"uv": [0, 0, 1, 0.25], "texture": "#0"},
				"up": {"uv": [0, 0, 2, 1], "texture": "#0"},
				"down": {"uv": [0, 0, 2, 1], "texture": "#0"}
			}
		},
		{
			"from": [-7.10666, 1.47015, 12.77626],
			"to": [-5.14646, 1.71517, 13.75636],
			"rotation": {"angle": 0, "axis": "y", "origin": [-6.12656, 0.73507, 13.75636]},
			"faces": {
				"north": {"uv": [2, 0, 0, 0.25], "texture": "#0"},
				"east": {"uv": [1, 0, 0, 0.25], "texture": "#0"},
				"south": {"uv": [2, 0, 0, 0.25], "texture": "#0"},
				"west": {"uv": [1, 0, 0, 0.25], "texture": "#0"},
				"up": {"uv": [0, 1, 2, 0], "texture": "#0"},
				"down": {"uv": [0, 1, 2, 0], "texture": "#0"}
			}
		},
		{
			"name": "ScreenBlock",
			"from": [-4.21242, 1.47, 4.40694],
			"to": [12.53758, 1.59, 11.59194],
			"rotation": {"angle": 0, "axis": "y", "origin": [-3.23242, 0.735, 4.15694]},
			"faces": {
				"north": {"uv": [0, 0, 1, 0.25], "texture": "#0"},
				"east": {"uv": [0, 0, 2, 0.25], "texture": "#0"},
				"south": {"uv": [0, 0, 1, 0.25], "texture": "#0"},
				"west": {"uv": [0, 0, 2, 0.25], "texture": "#0"},
				"up": {"uv": [9, 12, 14, 16], "texture": "#0"},
				"down": {"uv": [0, 0, 1, 2], "texture": "#0"}
			}
		}
	],
	"display": {
		"thirdperson_righthand": {
			"rotation": [-68, 8, -180],
			"translation": [-4.75, 1, 2.75],
			"scale": [0.3, 0.3, 0.3]
		},
		"thirdperson_lefthand": {
			"rotation": [-68, -160, -180],
			"translation": [-4.75, 1.25, 2.75],
			"scale": [0.3, 0.3, 0.3]
		},
		"firstperson_righthand": {
			"rotation": [90, 0, 44],
			"translation": [-0.75, 3.75, 3.75],
			"scale": [0.25, 0.25, 0.25]
		},
		"firstperson_lefthand": {
			"rotation": [90, 0, 44],
			"translation": [-0.75, 3.75, 3.75],
			"scale": [0.25, 0.25, 0.25]
		},
		"ground": {
			"scale": [0.4, 0.4, 0.4]
		},
		"gui": {
			"rotation": [65, 28, 0],
			"translation": [1.25, 2.75, 0],
			"scale": [0.5, 0.5, 0.5]
		},
		"head": {
			"rotation": [-90, 0, 0],
			"translation": [4, 0, -13.75]
		},
		"fixed": {
			"rotation": [-90, 0, 0],
			"translation": [1, -0.75, -6.5],
			"scale": [0.65, 0.65, 0.65]
		}
	},
	"groups": [
		{
			"name": "Communicator",
			"origin": [8, 8, 8],
			"children": [0, 1, 2, 3, 4, 5, 6, 7, 8, 9, 10, 11, 12, 13, 14, 15, 16, 17, 18, 19, 20, 21, 22, 23, 24, 25, 26, 27, 28, 29, 30, 31, 32, 33, 34, 35, 36, 37, 38, 39, 40, 41, 42, 43, 44, 45, 46, 47, 48, 49, 50, 51, 52, 53, 54, 55, 56, 57, 58, 59, 60, 61, 62, 63, 64, 65, 66, 67, 68, 69, 70, 71, 72, 73, 74, 75, 76, 77, 78, 79, 80, 81, 82]
		}, 83]
}