{
	"credit": "Made with Blockbench",
	"textures": {
		"0": "tardis:item/thermocoupling",
		"particle": "tardis:item/thermocoupling"
	},
	"elements": [
		{
			"from": [4.50002, 0, 4.49998],
			"to": [11.50002, 2, 6.49998],
			"faces": {
				"north": {"uv": [0, 0, 1, 1], "texture": "#0"},
				"east": {"uv": [0, 0, 1, 1], "texture": "#0"},
				"south": {"uv": [0, 0, 1, 1], "texture": "#0"},
				"west": {"uv": [0, 0, 1, 1], "texture": "#0"},
				"up": {"uv": [0, 0, 1, 1], "texture": "#0"},
				"down": {"uv": [0, 0, 1, 1], "texture": "#0"}
			}
		},
		{
			"from": [9.00002, 0.75, 0.49998],
			"to": [10.75002, 1.15, 4.49998],
			"faces": {
				"north": {"uv": [0.625, 7.625, 4.157, 10.844], "texture": "#0"},
				"east": {"uv": [0.625, 7.625, 4.157, 10.844], "texture": "#0"},
				"south": {"uv": [0.625, 7.625, 4.157, 10.844], "texture": "#0"},
				"west": {"uv": [0.625, 7.625, 4.157, 10.844], "texture": "#0"},
				"up": {"uv": [0.625, 7.625, 4.157, 10.844], "texture": "#0"},
				"down": {"uv": [0.625, 7.625, 4.157, 10.844], "texture": "#0"}
			}
		},
		{
			"from": [5.25002, 0.75, 0.49998],
			"to": [7.00002, 1.15, 4.49998],
			"faces": {
				"north": {"uv": [0.625, 7.625, 4.157, 10.844], "texture": "#0"},
				"east": {"uv": [0.625, 7.625, 4.157, 10.844], "texture": "#0"},
				"south": {"uv": [0.625, 7.625, 4.157, 10.844], "texture": "#0"},
				"west": {"uv": [0.625, 7.625, 4.157, 10.844], "texture": "#0"},
				"up": {"uv": [0.625, 7.625, 4.157, 10.844], "texture": "#0"},
				"down": {"uv": [0.625, 7.625, 4.157, 10.844], "texture": "#0"}
			}
		},
		{
			"from": [9.20002, 0.75, 0.09998],
			"to": [10.55002, 1.15, 0.49998],
			"faces": {
				"north": {"uv": [0.625, 7.625, 4.157, 10.844], "texture": "#0"},
				"east": {"uv": [0.625, 7.625, 4.157, 10.844], "texture": "#0"},
				"south": {"uv": [0.625, 7.625, 4.157, 10.844], "texture": "#0"},
				"west": {"uv": [0.625, 7.625, 4.157, 10.844], "texture": "#0"},
				"up": {"uv": [0.625, 7.625, 4.157, 10.844], "texture": "#0"},
				"down": {"uv": [0.625, 7.625, 4.157, 10.844], "texture": "#0"}
			}
		},
		{
			"from": [5.45002, 0.75, 0.09998],
			"to": [6.80002, 1.15, 0.49998],
			"faces": {
				"north": {"uv": [0.625, 7.625, 4.157, 10.844], "texture": "#0"},
				"east": {"uv": [0.625, 7.625, 4.157, 10.844], "texture": "#0"},
				"south": {"uv": [0.625, 7.625, 4.157, 10.844], "texture": "#0"},
				"west": {"uv": [0.625, 7.625, 4.157, 10.844], "texture": "#0"},
				"up": {"uv": [0.625, 7.625, 4.157, 10.844], "texture": "#0"},
				"down": {"uv": [0.625, 7.625, 4.157, 10.844], "texture": "#0"}
			}
		},
		{
			"from": [5.25002, 0.5, 6.74998],
			"to": [7.00002, 1.4, 6.74998],
			"faces": {
				"north": {"uv": [0, 0, 1, 1], "texture": "#0"},
				"east": {"uv": [0, 0, 1, 1], "texture": "#0"},
				"south": {"uv": [0, 0, 1, 1], "texture": "#0"},
				"west": {"uv": [0, 0, 1, 1], "texture": "#0"},
				"up": {"uv": [0, 0, 1, 1], "texture": "#0"},
				"down": {"uv": [0, 0, 1, 1], "texture": "#0"}
			}
		},
		{
			"from": [9.00002, 0.5, 6.74998],
			"to": [10.75002, 1.4, 6.74998],
			"faces": {
				"north": {"uv": [0, 0, 1, 1], "texture": "#0"},
				"east": {"uv": [0, 0, 1, 1], "texture": "#0"},
				"south": {"uv": [0, 0, 1, 1], "texture": "#0"},
				"west": {"uv": [0, 0, 1, 1], "texture": "#0"},
				"up": {"uv": [0, 0, 1, 1], "texture": "#0"},
				"down": {"uv": [0, 0, 1, 1], "texture": "#0"}
			}
		},
		{
			"from": [4.50002, 0, 6.49998],
			"to": [11.50002, 1.5, 8.89998],
			"faces": {
				"north": {"uv": [0, 0, 1, 1], "texture": "#0"},
				"east": {"uv": [0, 0, 1, 1], "texture": "#0"},
				"south": {"uv": [0, 0, 1, 1], "texture": "#0"},
				"west": {"uv": [0, 0, 1, 1], "texture": "#0"},
				"up": {"uv": [13.563, 13.563, 15.907, 16], "texture": "#0"},
				"down": {"uv": [0, 0, 1, 1], "texture": "#0"}
			}
		},
		{
			"from": [4.50002, 0, 8.89998],
			"to": [11.50002, 2, 11.89998],
			"faces": {
				"north": {"uv": [0, 0, 1, 1], "texture": "#0"},
				"east": {"uv": [0, 0, 1, 1], "texture": "#0"},
				"south": {"uv": [0, 0, 1, 1], "texture": "#0"},
				"west": {"uv": [0, 0, 1, 1], "texture": "#0"},
				"up": {"uv": [0, 0, 1, 1], "texture": "#0"},
				"down": {"uv": [0, 0, 1, 1], "texture": "#0"}
			}
		},
		{
			"from": [5.00002, 1.75, 9.89998],
			"to": [6.50002, 2.05, 11.39998],
			"faces": {
				"north": {"uv": [7.907, 1.813, 11.938, 5.625], "texture": "#0"},
				"east": {"uv": [7.907, 1.813, 11.938, 5.625], "texture": "#0"},
				"south": {"uv": [7.907, 1.813, 11.938, 5.625], "texture": "#0"},
				"west": {"uv": [7.907, 1.813, 11.938, 5.625], "texture": "#0"},
				"up": {"uv": [7.907, 1.813, 11.938, 5.625], "texture": "#0"},
				"down": {"uv": [7.907, 1.813, 11.938, 5.625], "texture": "#0"}
			}
		},
		{
			"from": [9.50002, 1.75, 9.89998],
			"to": [11.00002, 2.05, 11.39998],
			"faces": {
				"north": {"uv": [7.907, 1.813, 11.938, 5.625], "texture": "#0"},
				"east": {"uv": [7.907, 1.813, 11.938, 5.625], "texture": "#0"},
				"south": {"uv": [7.907, 1.813, 11.938, 5.625], "texture": "#0"},
				"west": {"uv": [7.907, 1.813, 11.938, 5.625], "texture": "#0"},
				"up": {"uv": [7.907, 1.813, 11.938, 5.625], "texture": "#0"},
				"down": {"uv": [7.907, 1.813, 11.938, 5.625], "texture": "#0"}
			}
		},
		{
			"from": [7.25002, 0.25, 11.89998],
			"to": [8.75002, 1.75, 14.14998],
			"faces": {
				"north": {"uv": [6.75, 6.469, 9.5, 9.063], "texture": "#0"},
				"east": {"uv": [6.75, 6.469, 9.5, 9.063], "texture": "#0"},
				"south": {"uv": [6.75, 6.469, 9.5, 9.063], "texture": "#0"},
				"west": {"uv": [6.75, 6.469, 9.5, 9.063], "texture": "#0"},
				"up": {"uv": [6.75, 6.469, 9.5, 9.063], "texture": "#0"},
				"down": {"uv": [6.75, 6.469, 9.5, 9.063], "texture": "#0"}
			}
		},
		{
			"from": [5.05002, 0.5, 4.42498],
			"to": [7.20002, 1.4, 4.67498],
			"faces": {
				"north": {"uv": [8.313, 8.094, 11.845, 11.157], "texture": "#0"},
				"east": {"uv": [8.313, 8.094, 11.845, 11.157], "texture": "#0"},
				"south": {"uv": [8.313, 8.094, 11.845, 11.157], "texture": "#0"},
				"west": {"uv": [8.313, 8.094, 11.845, 11.157], "texture": "#0"},
				"up": {"uv": [8.313, 8.094, 11.845, 11.157], "texture": "#0"},
				"down": {"uv": [8.313, 8.094, 11.845, 11.157], "texture": "#0"}
			}
		},
		{
			"from": [8.80002, 0.5, 4.42498],
			"to": [10.95002, 1.4, 4.67498],
			"faces": {
				"north": {"uv": [8.313, 8.094, 11.845, 11.157], "texture": "#0"},
				"east": {"uv": [8.313, 8.094, 11.845, 11.157], "texture": "#0"},
				"south": {"uv": [8.313, 8.094, 11.845, 11.157], "texture": "#0"},
				"west": {"uv": [8.313, 8.094, 11.845, 11.157], "texture": "#0"},
				"up": {"uv": [8.313, 8.094, 11.845, 11.157], "texture": "#0"},
				"down": {"uv": [8.313, 8.094, 11.845, 11.157], "texture": "#0"}
			}
		},
		{
			"from": [4.50002, 1.25, 6.49998],
			"to": [6.10002, 1.75, 8.89998],
			"faces": {
				"north": {"uv": [0, 0, 1, 1], "texture": "#0"},
				"east": {"uv": [0, 0, 1, 1], "texture": "#0"},
				"south": {"uv": [0, 0, 1, 1], "texture": "#0"},
				"west": {"uv": [0, 0, 1, 1], "texture": "#0"},
				"up": {"uv": [0, 0, 1, 1], "texture": "#0"},
				"down": {"uv": [0, 0, 1, 1], "texture": "#0"}
			}
		},
		{
			"from": [9.90002, 1.25, 6.49998],
			"to": [11.50002, 1.75, 8.89998],
			"faces": {
				"north": {"uv": [0, 0, 1, 1], "texture": "#0"},
				"east": {"uv": [0, 0, 1, 1], "texture": "#0"},
				"south": {"uv": [0, 0, 1, 1], "texture": "#0"},
				"west": {"uv": [0, 0, 1, 1], "texture": "#0"},
				"up": {"uv": [0, 0, 1, 1], "texture": "#0"},
				"down": {"uv": [0, 0, 1, 1], "texture": "#0"}
			}
		},
		{
			"from": [6.00002, 1.25, 6.49998],
			"to": [9.90002, 1.525, 8.89998],
			"faces": {
				"north": {"uv": [0.875, 7.094, 3.938, 8.469], "texture": "#0"},
				"east": {"uv": [0.875, 7.094, 3.938, 8.469], "texture": "#0"},
				"south": {"uv": [0.875, 7.094, 3.938, 8.469], "texture": "#0"},
				"west": {"uv": [0.875, 7.094, 3.938, 8.469], "texture": "#0"},
				"up": {"uv": [7.813, 6.938, 10.75, 10.906], "texture": "#0"},
				"down": {"uv": [0.875, 7.094, 3.938, 8.469], "texture": "#0"}
			}
		},
		{
			"from": [8.80002, 1.3, 8.04998],
			"to": [9.70002, 1.575, 8.64998],
			"faces": {
				"north": {"uv": [0.719, 14.438, 4.313, 15.625], "texture": "#0"},
				"east": {"uv": [0.719, 14.438, 4.313, 15.625], "texture": "#0"},
				"south": {"uv": [0.719, 14.438, 4.313, 15.625], "texture": "#0"},
				"west": {"uv": [0.719, 14.438, 4.313, 15.625], "texture": "#0"},
				"up": {"uv": [0.719, 14.438, 4.313, 15.625], "texture": "#0"},
				"down": {"uv": [0.719, 14.438, 4.313, 15.625], "texture": "#0"}
			}
		},
		{
			"from": [7.55002, 1.3, 8.04998],
			"to": [8.45002, 1.575, 8.64998],
			"faces": {
				"north": {"uv": [0.719, 14.438, 4.313, 15.625], "texture": "#0"},
				"east": {"uv": [0.719, 14.438, 4.313, 15.625], "texture": "#0"},
				"south": {"uv": [0.719, 14.438, 4.313, 15.625], "texture": "#0"},
				"west": {"uv": [0.719, 14.438, 4.313, 15.625], "texture": "#0"},
				"up": {"uv": [0.719, 14.438, 4.313, 15.625], "texture": "#0"},
				"down": {"uv": [0.719, 14.438, 4.313, 15.625], "texture": "#0"}
			}
		},
		{
			"from": [6.30002, 1.3, 8.04998],
			"to": [7.20002, 1.575, 8.64998],
			"faces": {
				"north": {"uv": [0.719, 14.438, 4.313, 15.625], "texture": "#0"},
				"east": {"uv": [0.719, 14.438, 4.313, 15.625], "texture": "#0"},
				"south": {"uv": [0.719, 14.438, 4.313, 15.625], "texture": "#0"},
				"west": {"uv": [0.719, 14.438, 4.313, 15.625], "texture": "#0"},
				"up": {"uv": [0.719, 14.438, 4.313, 15.625], "texture": "#0"},
				"down": {"uv": [0.719, 14.438, 4.313, 15.625], "texture": "#0"}
			}
		},
		{
			"from": [6.30002, 1.3, 6.79998],
			"to": [7.20002, 1.575, 7.39998],
			"faces": {
				"north": {"uv": [0.719, 14.438, 4.313, 15.625], "texture": "#0"},
				"east": {"uv": [0.719, 14.438, 4.313, 15.625], "texture": "#0"},
				"south": {"uv": [0.719, 14.438, 4.313, 15.625], "texture": "#0"},
				"west": {"uv": [0.719, 14.438, 4.313, 15.625], "texture": "#0"},
				"up": {"uv": [0.719, 14.438, 4.313, 15.625], "texture": "#0"},
				"down": {"uv": [0.719, 14.438, 4.313, 15.625], "texture": "#0"}
			}
		},
		{
			"from": [7.55002, 1.3, 6.79998],
			"to": [8.45002, 1.575, 7.39998],
			"faces": {
				"north": {"uv": [0.719, 14.438, 4.313, 15.625], "texture": "#0"},
				"east": {"uv": [0.719, 14.438, 4.313, 15.625], "texture": "#0"},
				"south": {"uv": [0.719, 14.438, 4.313, 15.625], "texture": "#0"},
				"west": {"uv": [0.719, 14.438, 4.313, 15.625], "texture": "#0"},
				"up": {"uv": [0.719, 14.438, 4.313, 15.625], "texture": "#0"},
				"down": {"uv": [0.719, 14.438, 4.313, 15.625], "texture": "#0"}
			}
		},
		{
			"from": [8.80002, 1.3, 6.79998],
			"to": [9.70002, 1.575, 7.39998],
			"faces": {
				"north": {"uv": [0.719, 14.438, 4.313, 15.625], "texture": "#0"},
				"east": {"uv": [0.719, 14.438, 4.313, 15.625], "texture": "#0"},
				"south": {"uv": [0.719, 14.438, 4.313, 15.625], "texture": "#0"},
				"west": {"uv": [0.719, 14.438, 4.313, 15.625], "texture": "#0"},
				"up": {"uv": [0.719, 14.438, 4.313, 15.625], "texture": "#0"},
				"down": {"uv": [0.719, 14.438, 4.313, 15.625], "texture": "#0"}
			}
		},
		{
			"from": [6.30002, 1.3, 7.57498],
			"to": [7.20002, 1.575, 7.87498],
			"faces": {
				"north": {"uv": [0.719, 14.438, 4.313, 15.625], "texture": "#0"},
				"east": {"uv": [0.719, 14.438, 4.313, 15.625], "texture": "#0"},
				"south": {"uv": [0.719, 14.438, 4.313, 15.625], "texture": "#0"},
				"west": {"uv": [0.719, 14.438, 4.313, 15.625], "texture": "#0"},
				"up": {"uv": [0.719, 14.438, 4.313, 15.625], "texture": "#0"},
				"down": {"uv": [0.719, 14.438, 4.313, 15.625], "texture": "#0"}
			}
		},
		{
			"from": [7.55002, 1.3, 7.57498],
			"to": [8.45002, 1.575, 7.87498],
			"faces": {
				"north": {"uv": [0.719, 14.438, 4.313, 15.625], "texture": "#0"},
				"east": {"uv": [0.719, 14.438, 4.313, 15.625], "texture": "#0"},
				"south": {"uv": [0.719, 14.438, 4.313, 15.625], "texture": "#0"},
				"west": {"uv": [0.719, 14.438, 4.313, 15.625], "texture": "#0"},
				"up": {"uv": [0.719, 14.438, 4.313, 15.625], "texture": "#0"},
				"down": {"uv": [0.719, 14.438, 4.313, 15.625], "texture": "#0"}
			}
		},
		{
			"from": [8.80002, 1.3, 7.57498],
			"to": [9.70002, 1.575, 7.87498],
			"faces": {
				"north": {"uv": [0.719, 14.438, 4.313, 15.625], "texture": "#0"},
				"east": {"uv": [0.719, 14.438, 4.313, 15.625], "texture": "#0"},
				"south": {"uv": [0.719, 14.438, 4.313, 15.625], "texture": "#0"},
				"west": {"uv": [0.719, 14.438, 4.313, 15.625], "texture": "#0"},
				"up": {"uv": [0.719, 14.438, 4.313, 15.625], "texture": "#0"},
				"down": {"uv": [0.719, 14.438, 4.313, 15.625], "texture": "#0"}
			}
		},
		{
			"from": [6.20002, 1.275, 6.29998],
			"to": [7.30002, 1.55, 8.89998],
			"faces": {
				"north": {"uv": [0.719, 14.438, 4.313, 15.625], "texture": "#0"},
				"east": {"uv": [0.719, 14.438, 4.313, 15.625], "texture": "#0"},
				"south": {"uv": [0.719, 14.438, 4.313, 15.625], "texture": "#0"},
				"west": {"uv": [0.719, 14.438, 4.313, 15.625], "texture": "#0"},
				"up": {"uv": [0.719, 1.126, 4.313, 3.75], "texture": "#0"},
				"down": {"uv": [0.719, 14.438, 4.313, 15.625], "texture": "#0"}
			}
		},
		{
			"from": [7.45002, 1.275, 6.29998],
			"to": [8.55002, 1.55, 8.89998],
			"faces": {
				"north": {"uv": [0.719, 14.438, 4.313, 15.625], "texture": "#0"},
				"east": {"uv": [0.719, 14.438, 4.313, 15.625], "texture": "#0"},
				"south": {"uv": [0.719, 14.438, 4.313, 15.625], "texture": "#0"},
				"west": {"uv": [0.719, 14.438, 4.313, 15.625], "texture": "#0"},
				"up": {"uv": [0.719, 1.126, 4.313, 3.75], "texture": "#0"},
				"down": {"uv": [0.719, 14.438, 4.313, 15.625], "texture": "#0"}
			}
		},
		{
			"from": [8.70002, 1.275, 6.29998],
			"to": [9.80002, 1.55, 8.89998],
			"faces": {
				"north": {"uv": [0.719, 14.438, 4.313, 15.625], "texture": "#0"},
				"east": {"uv": [0.719, 14.438, 4.313, 15.625], "texture": "#0"},
				"south": {"uv": [0.719, 14.438, 4.313, 15.625], "texture": "#0"},
				"west": {"uv": [0.719, 14.438, 4.313, 15.625], "texture": "#0"},
				"up": {"uv": [0.719, 1.126, 4.313, 3.75], "texture": "#0"},
				"down": {"uv": [0.719, 14.438, 4.313, 15.625], "texture": "#0"}
			}
		}
	],
	"display": {
		"thirdperson_righthand": {
			"rotation": [90, 0, 0],
			"translation": [0, 0.5, 3.25],
			"scale": [0.3, 0.3, 0.3]
		},
		"thirdperson_lefthand": {
			"rotation": [90, 0, 0],
			"translation": [0, 0.5, 3.25],
			"scale": [0.3, 0.3, 0.3]
		},
		"firstperson_righthand": {
			"rotation": [40, 0, 20],
			"translation": [-2, 6, 4.75],
			"scale": [0.4, 0.4, 0.4]
		},
		"firstperson_lefthand": {
			"rotation": [40, 0, 20],
			"translation": [-2, 6, 4.75],
			"scale": [0.4, 0.4, 0.4]
		},
		"ground": {
			"translation": [0, 3, 0],
			"scale": [0.5, 0.5, 0.5]
		},
		"gui": {
			"rotation": [50, -30.5, 0],
			"translation": [-0.75, 3.25, 0],
			"scale": [0.9, 0.9, 0.9]
		},
		"head": {
			"translation": [0, 2.5, -3]
		},
		"fixed": {
			"rotation": [90, 0, -180],
			"translation": [0, -1.25, -3.75],
			"scale": [0.5, 0.5, 0.5]
		}
	}
}