{
	"lines":[
	" The Compartment with a green door is an upgrade slot, more on that in the Upgrades section."
	 ,"The final Compartment is the Artron slot, with a red door. This is for fuel cells to add to your time-ship's internal buffer of 256AU"	
	 ]
}