{
	"lines":[
		"(Aban. T.S. Cont.)"
		,""
		," When trying to find one, it is helpful to remember that time-ships will relay village bells with their own cloister bells, making them easy to locate the general area."
	]
}