{
	"lines":[
		"Flight Hazards (cont.)",
		"",
		"Low Artron Flow",
		" time-ships require different rates of fuel flow during flight",
		"Use the refueler control to provide your time-ship with more fuel from its reserves."
	]
}